[gd_resource type="AudioBusLayout" load_steps=7 format=2]

[sub_resource type="AudioEffectNotchFilter" id=1]
resource_name = "NotchFilter"

[sub_resource type="AudioEffectNotchFilter" id=2]
resource_name = "NotchFilter"

[sub_resource type="AudioEffectReverb" id=3]
resource_name = "Reverb"
room_size = 0.0
damping = 0.12

[sub_resource type="AudioEffectAmplify" id=4]
resource_name = "Amplify"
volume_db = 3.0

[sub_resource type="AudioEffectEQ" id=5]
resource_name = "EQ"

[sub_resource type="AudioEffectChorus" id=6]
resource_name = "Chorus"

[resource]
bus/1/name = "sfx"
bus/1/solo = false
bus/1/mute = false
bus/1/bypass_fx = false
bus/1/volume_db = -15.1981
bus/1/send = "Master"
bus/1/effect/0/effect = SubResource( 1 )
bus/1/effect/0/enabled = true
bus/2/name = "bgm"
bus/2/solo = false
bus/2/mute = false
bus/2/bypass_fx = false
bus/2/volume_db = 0.0
bus/2/send = "Master"
bus/2/effect/0/effect = SubResource( 2 )
bus/2/effect/0/enabled = true
bus/2/effect/1/effect = SubResource( 3 )
bus/2/effect/1/enabled = false
bus/2/effect/2/effect = SubResource( 4 )
bus/2/effect/2/enabled = false
bus/2/effect/3/effect = SubResource( 5 )
bus/2/effect/3/enabled = false
bus/2/effect/4/effect = SubResource( 6 )
bus/2/effect/4/enabled = false
